{
    "oficina": [
        { 
            "_id": 1,
            "nome": "JSON",
            "professor": "Douglas Crockford",
            "local": 1,
            "participantes": [1, 2, 3]
        },
        { 
            "_id": 2,
            "nome": "Javascript na prática",
            "professor": "Brendan Eich",
            "local": 1,
            "participantes": [4, 5]
        },
        { 
            "_id": 3,
            "nome": "HTML e HTTP",
            "professor": "Tim Berners Lee",
            "local": 2,
            "participantes": []
        },
        { 
            "_id": 4,
            "nome": "Python avançado",
            "professor": "Guido van Rossum",
            "local": 3,
            "participantes": []
        }
    ],
    "local": [
        {
            "_id": 1,
            "nome": "XXI A 001",
            "capacidade": 3
        },
        {
            "_id": 2,
            "nome": "XXI C 007",
            "capacidade": 2
        },
        {
            "_id": 3,
            "nome": "R2 Lab 007",
            "capacidade": 5
        }
    ],
    "usuarios": [
        { "_id": 1, "nome": "Ramon" },
        { "_id": 2, "nome": "Roberto" },
        { "_id": 3, "nome": "Catarina" },
        { "_id": 4, "nome": "Alice" },
        { "_id": 5, "nome": "Augusto" },
        { "_id": 6, "nome": "Julia" }
    ]
}
